<svg width="32" height="32" viewBox="0 0 32 32" fill="none" xmlns="http://www.w3.org/2000/svg">
<path d="M28 8L20 8V10.6667L28 10.6667V8ZM28 24V21.3333L4 21.3333V24L28 24ZM28 14.6667L12 14.6667V17.3333L28 17.3333V14.6667Z" fill="#333333"/>
</svg>
