<svg width="24" height="24" viewBox="0 0 24 24" fill="none" xmlns="http://www.w3.org/2000/svg">
<g clip-path="url(#clip0)">
<path d="M10.99 2C5.47 2 1 6.48 1 12C1 17.52 5.47 22 10.99 22C16.52 22 21 17.52 21 12C21 6.48 16.52 2 10.99 2ZM17.92 8H14.97C14.65 6.75 14.19 5.55 13.59 4.44C15.43 5.07 16.96 6.35 17.92 8ZM11 4.04C11.83 5.24 12.48 6.57 12.91 8H9.09C9.52 6.57 10.17 5.24 11 4.04ZM3.26 14C3.1 13.36 3 12.69 3 12C3 11.31 3.1 10.64 3.26 10H6.64C6.56 10.66 6.5 11.32 6.5 12C6.5 12.68 6.56 13.34 6.64 14H3.26ZM4.08 16H7.03C7.35 17.25 7.81 18.45 8.41 19.56C6.57 18.93 5.04 17.66 4.08 16ZM7.03 8H4.08C5.04 6.34 6.57 5.07 8.41 4.44C7.81 5.55 7.35 6.75 7.03 8ZM11 19.96C10.17 18.76 9.52 17.43 9.09 16H12.91C12.48 17.43 11.83 18.76 11 19.96ZM13.34 14H8.66C8.57 13.34 8.5 12.68 8.5 12C8.5 11.32 8.57 10.65 8.66 10H13.34C13.43 10.65 13.5 11.32 13.5 12C13.5 12.68 13.43 13.34 13.34 14ZM13.59 19.56C14.19 18.45 14.65 17.25 14.97 16H17.92C16.96 17.65 15.43 18.93 13.59 19.56ZM15.36 14C15.44 13.34 15.5 12.68 15.5 12C15.5 11.32 15.44 10.66 15.36 10H18.74C18.9 10.64 19 11.31 19 12C19 12.69 18.9 13.36 18.74 14H15.36Z" fill="#333333"/>
</g>
<defs>
<clipPath id="clip0">
<rect width="24" height="24" fill="white"/>
</clipPath>
</defs>
</svg>
